eea2020_tp3_Pires_Barracosa_Enrique
…
En el eje x tenemos la clase verdadera: Si no sobrevivi (0), pintado en rojo, y si sobrevivi (1), pintado en turquesa. En el eje y tenemos la probabilidad predicha por el modelo. El ancho de cada grupo del grfico representa la magnitud de observaciones de esa clase que tienen esa probabilidad (suavizando por continuidad).

Podemos observar para los casos con probabilidad estimada menor a 0.25 que tenemos una altsima cantidad de no supervivientes. Mientras que si tomamos una probabilidad estimada superior a 0.75 la cantidad de muertos es muy peqeua. Por otro lado, la gran mayora de los supervivientes tienen una probabilidad de sobrevivir estimada mayor a 0.30. A diferencia de los no sobrevivientes, no observamos una gran concentracin de sobrevivientes en un intervalo de probabilidad estimada pequeo.

Eleccin del punto de corte

Segn lo que observamos en secciones anteriores, tenamos como tentativos puntos de corte 0.25, 0,30 y 0.75. Ya que debajo de 0.25 de probabilidad estimada se concentraban muchos muertes, mientras que por encima de 0.75 la cantidad de muertes es muy baja. Para ayudar nuestra prediccin vamos a observar grficamente las medidas de Accuracy, Recall, Precision y Specificity en el dataset de validacin. Para eso comencemos estimando las probabilidades de cada observacin en ese dataset.

model_BIG5 <- glm(logit_formula$BIG5, family = 'binomial', data = df_train)

table= augment(x=model_BIG5, newdata=df_val, type.predict='response') 
table

## # A tibble: 267 x 11
##    .rownames PassengerId Survived Pclass Sex     Age SibSp Parch   Fare Embarked
##    <chr>           <int> <fct>    <fct>  <fct> <dbl> <int> <int>  <dbl> <fct>   
##  1 14                 14 0        3      male   39       1     5  31.3  S       
##  2 16                 16 1        2      fema  55       0     0  16    S       
##  3 20                 20 1        3      fema  21.8     0     0   7.22 C       
##  4 21                 21 0        2      male   35       0     0  26    S       
##  5 25                 25 0        3      fema   8       3     1  21.1  S       
##  6 26                 26 1        3      fema  38       1     5  31.4  S       
##  7 32                 32 1        1      fema  34.6     1     0 147.   C       
##  8 33                 33 1        3      fema  21.8     0     0   7.75 Q       
##  9 42                 42 0        2      fema  27       1     0  21    S       
## 10 43                 43 0        3      male   26.5     0     0   7.90 C       
## #  with 257 more rows, and 1 more variable: .fitted <dbl>
…
